UART_FIFO.sim/sim_1/behav/xsim/dump.vcd
$date
   Wed Jun 10 17:53:22 2026
$end

$version
  2025.1.0
  $dumpfile ("dump.vcd") 
$end

$timescale
  1ps
$end

$scope module tb_top $end
$var reg 1 ! clk $end
$scope module vif $end
$var wire 1 " clk $end
$var reg 1 # rst_n $end
$var reg 1 $ w_en $end
$var reg 8 % din [7:0] $end
$var reg 1 & full $end
$var reg 1 ' rx $end
$var reg 1 ( tx $end
$var reg 1 ) rx_valid $end
$var reg 8 * dout [7:0] $end
$scope module drv_cb $end
$var reg 1 + full $end
$var reg 8 , din [7:0] $end
$var reg 1 - w_en $end
$upscope $end
$scope module mon_cb $end
$var reg 1 . w_en $end
$var reg 1 / rx_valid $end
$var reg 1 0 rx $end
$var reg 1 1 tx $end
$var reg 8 2 din [7:0] $end
$var reg 8 3 dout [7:0] $end
$var reg 1 4 full $end
$upscope $end
$upscope $end
$scope module DUT $end
$var wire 1 5 clk $end
$var wire 1 6 rst_n $end
$var wire 1 7 w_en $end
$var wire 8 8 din [7:0] $end
$var reg 1 9 full $end
$var wire 1 : rx $end
$var reg 1 ; tx $end
$var reg 1 < rx_valid $end
$var reg 8 = dout [7:0] $end
$var reg 1 > tick $end
$var reg 1 ? tick_s $end
$var reg 1 @ fifo_empty $end
$var reg 1 A tx_ready $end
$var reg 1 B tx_start $end
$var reg 8 C tx_data [7:0] $end
$scope module BAUD_INST $end
$var wire 1 5 clk $end
$var wire 1 6 rst_n $end
$var reg 1 > tick $end
$var reg 1 ? tick_s $end
$var reg 9 D cnt [8:0] $end
$var reg 5 E cnt_s [4:0] $end
$upscope $end
$scope module TX_FIFO_INST $end
$var wire 1 5 clk $end
$var wire 1 6 rst_n $end
$var wire 1 7 w_en $end
$var wire 1 F r_en $end
$var wire 8 8 din [7:0] $end
$var reg 8 C dout [7:0] $end
$var reg 1 9 full $end
$var reg 1 @ empty $end
$var reg 5 G count [4:0] $end
$var reg 4 H w_ptr [3:0] $end
$var reg 4 I r_ptr [3:0] $end
$upscope $end
$scope module TX_INST $end
$var wire 1 5 clk $end
$var wire 1 6 rst_n $end
$var wire 1 J tick $end
$var wire 1 K d_valid $end
$var wire 8 L din [7:0] $end
$var reg 1 ; tx $end
$var reg 1 A d_ready $end
$var reg 2 M state $end
$var reg 8 N shift_reg [7:0] $end
$var reg 4 O bit_cnt [3:0] $end
$upscope $end
$scope module RX_INST $end
$var wire 1 5 clk $end
$var wire 1 6 rst_n $end
$var wire 1 P tick_s $end
$var wire 1 : rx $end
$var reg 1 < d_valid $end
$var reg 8 = dout [7:0] $end
$var reg 2 Q state $end
$var reg 4 R cnt [3:0] $end
$var reg 4 S cnt_s [3:0] $end
$var reg 8 T shift_reg [7:0] $end
$upscope $end
$upscope $end
$upscope $end
$enddefinitions $end

#0
$dumpvars
0!
0"
0#
x$
bx %
0&
1'
1(
0)
bx *
x+
bx ,
x-
x.
x/
x0
x1
bx 2
bx 3
x4
05
06
x7
bx 8
09
1:
1;
0<
bx =
0>
0?
1@
1A
0B
bx C
b0 D
b0 E
0F
b0 G
b0 H
b0 I
0J
0K
bx L
b0 M
bx N
b0 O
0P
b0 Q
b0 R
b0 S
bx T
$end

#10000
1!
1"
0+
0/
10
11
04
15

#20000
0!
0"
05

#30000
1!
1"
15

#40000
0!
0"
05

#50000
1!
1"
1#
b0 ,
0-
15
16
b1 D
b1 E

#51000
0$
b0 %
07
b0 8

#60000
0!
0"
05

#70000
1!
1"
0.
b0 2
15
b10 D
b10 E

#80000
0!
0"
05

#90000
1!
1"
15
b11 D
b11 E

#100000
0!
0"
05

#110000
1!
1"
b11111001 ,
1-
15
b100 D
b100 E

#111000
1$
b11111001 %
17
b11111001 8

#120000
0!
0"
05

#130000
1!
1"
0-
1.
b11111001 2
15
0@
b11111001 C
b101 D
b101 E
b1 G
b1 H
b11111001 L

#131000
0$
07

#140000
0!
0"
05

#150000
1!
1"
0.
15
b110 D
b110 E

#160000
0!
0"
05

#170000
1!
1"
15
b111 D
b111 E

#180000
0!
0"
05

#190000
1!
1"
15
b1000 D
b1000 E

#200000
0!
0"
05

#210000
1!
1"
15
b1001 D
b1001 E

#220000
0!
0"
05

#230000
1!
1"
b1100100 ,
1-
15
b1010 D
b1010 E

#231000
1$
b1100100 %
17
b1100100 8

#240000
0!
0"
05

#250000
1!
1"
0-
1.
b1100100 2
15
b1011 D
b1011 E
b10 G
b10 H

#251000
0$
07

#260000
0!
0"
05

#270000
1!
1"
0.
15
b1100 D
b1100 E

#280000
0!
0"
05

#290000
1!
1"
15
b1101 D
b1101 E

#300000
0!
0"
05

#310000
1!
1"
15
b1110 D
b1110 E

#320000
0!
0"
05

#330000
1!
1"
15
b1111 D
b1111 E

#340000
0!
0"
05

#350000
1!
1"
15
b10000 D
b10000 E

#360000
0!
0"
05

#370000
1!
1"
15
b10001 D
b10001 E

#380000
0!
0"
05

#390000
1!
1"
b10010000 ,
1-
15
b10010 D
b10010 E

#391000
1$
b10010000 %
17
b10010000 8

#400000
0!
0"
05

#410000
1!
1"
0-
1.
b10010000 2
15
b10011 D
b10011 E
b11 G
b11 H

#411000
0$
07

#420000
0!
0"
05

#430000
1!
1"
0.
15
b10100 D
b10100 E

#440000
0!
0"
05

#450000
1!
1"
15
b10101 D
b10101 E

#460000
0!
0"
05

#470000
1!
1"
15
b10110 D
b10110 E

#480000
0!
0"
05

#490000
1!
1"
15
b10111 D
b10111 E

#500000
0!
0"
05

#510000
1!
1"
15
b11000 D
b11000 E

#520000
0!
0"
05

#530000
1!
1"
15
b11001 D
b11001 E

#540000
0!
0"
05

#550000
1!
1"
b11100101 ,
1-
15
b11010 D
b11010 E

#551000
1$
b11100101 %
17
b11100101 8

#560000
0!
0"
05

#570000
1!
1"
0-
1.
b11100101 2
15
1?
b11011 D
b0 E
b100 G
b100 H
1P

#571000
0$
07

#580000
0!
0"
05

#590000
1!
1"
0.
15
0?
b11100 D
b1 E
0P

#600000
0!
0"
05

#610000
1!
1"
15
b11101 D
b10 E

#620000
0!
0"
05

#630000
1!
1"
15
b11110 D
b11 E

#640000
0!
0"
05

#650000
1!
1"
15
b11111 D
b100 E

#660000
0!
0"
05

#670000
1!
1"
15
b100000 D
b101 E

#680000
0!
0"
05

#690000
1!
1"
15
b100001 D
b110 E

#700000
0!
0"
05

#710000
1!
1"
15
b100010 D
b111 E

#720000
0!
0"
05

#730000
1!
1"
15
b100011 D
b1000 E

#740000
0!
0"
05

#750000
1!
1"
15
b100100 D
b1001 E

#760000
0!
0"
05

#770000
1!
1"
15
b100101 D
b1010 E

#780000
0!
0"
05

#790000
1!
1"
b1100100 ,
1-
15
b100110 D
b1011 E

#791000
1$
b1100100 %
17
b1100100 8

#800000
0!
0"
05

#810000
1!
1"
0-
1.
b1100100 2
15
b100111 D
b1100 E
b101 G
b101 H

#811000
0$
07

#820000
0!
0"
05

#830000
1!
1"
0.
15
b101000 D
b1101 E

#840000
0!
0"
05

#850000
1!
1"
b11000101 ,
1-
15
b101001 D
b1110 E

#851000
1$
b11000101 %
17
b11000101 8

#860000
0!
0"
05

#870000
1!
1"
0-
1.
b11000101 2
15
b101010 D
b1111 E
b110 G
b110 H

#871000
0$
07

#880000
0!
0"
05

#890000
1!
1"
0.
15
b101011 D
b10000 E

#900000
0!
0"
05

#910000
1!
1"
15
b101100 D
b10001 E

#920000
0!
0"
05

#930000
1!
1"
15
b101101 D
b10010 E

#940000
0!
0"
05

#950000
1!
1"
15
b101110 D
b10011 E

#960000
0!
0"
05

#970000
1!
1"
15
b101111 D
b10100 E

#980000
0!
0"
05

#990000
1!
1"
15
b110000 D
b10101 E

